condit,agegrp,gender,audit,audit12,condit_rev
2,1,1,0,0,Control
2,2,1,0,0,Control
2,2,2,0,0,Control
2,1,2,0,0,Control
2,1,1,0,0,Control
2,2,2,0,0,Control
2,1,2,0,0,Control
2,2,1,0,0,Control
2,1,2,0,0,Control
2,1,2,0,0,Control
2,1,1,0,0,Control
2,2,1,0,0,Control
2,1,2,0,0,Control
1,2,2,0,0,Intervention
1,3,2,0,0,Intervention
1,2,1,0,0,Intervention
1,1,1,0,0,Intervention
1,3,2,0,0,Intervention
1,1,2,0,0,Intervention
1,1,2,0,0,Intervention
1,2,1,0,0,Intervention
1,2,2,0,0,Intervention
1,3,2,0,0,Intervention
1,1,2,0,0,Intervention
1,1,2,0,2,Intervention
1,1,2,0,2,Intervention
2,2,1,0,3,Control
1,1,2,0,4,Intervention
2,1,2,0,5,Control
1,1,1,0,5,Intervention
2,1,1,0,8,Control
2,1,2,1,0,Control
2,1,2,1,0,Control
1,2,2,1,0,Intervention
1,2,2,1,0,Intervention
1,1,2,1,0,Intervention
2,1,2,1,1,Control
2,3,2,1,1,Control
2,1,2,1,1,Control
2,2,1,1,1,Control
2,1,1,1,1,Control
2,2,2,1,1,Control
2,2,2,1,1,Control
2,1,1,1,1,Control
1,1,2,1,1,Intervention
1,2,2,1,1,Intervention
1,3,2,1,1,Intervention
1,2,2,1,1,Intervention
1,1,2,1,1,Intervention
1,1,2,1,1,Intervention
1,3,2,1,1,Intervention
1,1,2,1,1,Intervention
1,2,2,1,1,Intervention
1,2,2,1,1,Intervention
1,1,2,1,1,Intervention
2,1,1,1,2,Control
2,1,2,1,2,Control
2,1,1,1,2,Control
1,2,2,1,2,Intervention
1,1,2,1,2,Intervention
2,2,2,1,3,Control
1,1,1,1,3,Intervention
2,2,2,1,7,Control
2,2,2,2,0,Control
2,3,2,2,0,Control
1,1,2,2,0,Intervention
1,2,2,2,0,Intervention
1,2,1,2,0,Intervention
2,3,2,2,1,Control
2,1,2,2,1,Control
2,1,1,2,1,Control
2,2,2,2,1,Control
1,3,2,2,1,Intervention
1,2,2,2,1,Intervention
1,1,1,2,1,Intervention
2,3,2,2,2,Control
2,2,2,2,2,Control
2,2,1,2,2,Control
2,1,2,2,2,Control
2,1,2,2,2,Control
2,2,2,2,2,Control
1,1,2,2,2,Intervention
1,3,2,2,2,Intervention
1,2,1,2,2,Intervention
1,1,2,2,2,Intervention
1,2,2,2,2,Intervention
1,2,2,2,2,Intervention
1,1,2,2,2,Intervention
2,1,2,2,3,Control
2,1,2,2,3,Control
2,1,1,2,3,Control
1,1,2,2,3,Intervention
1,1,2,2,3,Intervention
1,2,1,2,3,Intervention
1,2,2,2,3,Intervention
2,1,2,2,6,Control
1,1,2,2,6,Intervention
2,1,1,3,1,Control
2,1,2,3,1,Control
2,2,2,3,1,Control
1,1,2,3,1,Intervention
1,2,2,3,1,Intervention
2,1,2,3,2,Control
2,1,2,3,2,Control
2,1,1,3,2,Control
2,1,2,3,2,Control
1,1,2,3,2,Intervention
1,1,2,3,2,Intervention
1,2,2,3,2,Intervention
1,2,2,3,2,Intervention
2,1,2,3,3,Control
2,1,2,3,3,Control
2,1,1,3,3,Control
1,1,2,3,3,Intervention
1,3,2,3,3,Intervention
1,3,2,3,3,Intervention
1,1,2,3,3,Intervention
1,2,1,3,3,Intervention
2,1,2,3,4,Control
2,3,2,3,4,Control
2,1,2,3,4,Control
1,1,1,3,4,Intervention
1,2,2,3,5,Intervention
1,1,1,3,6,Intervention
1,2,2,3,6,Intervention
1,1,1,3,10,Intervention
1,2,1,4,0,Intervention
2,3,2,4,1,Control
2,1,2,4,1,Control
1,1,1,4,1,Intervention
1,1,2,4,1,Intervention
2,1,2,4,2,Control
2,1,1,4,2,Control
2,2,1,4,2,Control
2,3,2,4,2,Control
2,2,2,4,2,Control
1,2,2,4,2,Intervention
1,1,2,4,2,Intervention
1,1,2,4,2,Intervention
2,1,2,4,3,Control
1,3,2,4,3,Intervention
1,2,2,4,3,Intervention
1,1,2,4,3,Intervention
1,2,2,4,3,Intervention
1,2,2,4,3,Intervention
2,1,2,4,4,Control
2,1,2,4,4,Control
2,1,1,4,4,Control
2,2,2,4,4,Control
2,3,2,4,4,Control
2,3,1,4,4,Control
1,2,2,4,4,Intervention
2,3,2,4,5,Control
2,2,2,4,5,Control
2,2,2,4,5,Control
2,2,1,4,5,Control
2,3,2,4,5,Control
2,1,2,4,5,Control
2,1,1,4,5,Control
1,1,2,4,5,Intervention
2,1,2,4,6,Control
2,2,2,4,6,Control
2,1,2,4,6,Control
1,3,1,4,6,Intervention
1,1,2,4,6,Intervention
1,2,2,4,7,Intervention
1,1,2,4,7,Intervention
1,1,2,4,8,Intervention
2,1,1,4,9,Control
2,2,2,4,11,Control
2,2,2,5,1,Control
1,2,2,5,1,Intervention
1,2,2,5,1,Intervention
1,2,2,5,1,Intervention
2,1,1,5,2,Control
1,1,2,5,2,Intervention
1,2,2,5,2,Intervention
2,2,2,5,3,Control
2,1,2,5,3,Control
2,1,2,5,3,Control
1,3,1,5,3,Intervention
1,2,1,5,3,Intervention
1,2,2,5,3,Intervention
1,1,2,5,3,Intervention
2,2,2,5,4,Control
2,1,2,5,4,Control
2,3,2,5,4,Control
1,2,2,5,4,Intervention
1,1,2,5,4,Intervention
1,2,2,5,4,Intervention
1,1,2,5,4,Intervention
2,1,2,5,5,Control
2,1,2,5,5,Control
2,1,2,5,5,Control
1,1,2,5,5,Intervention
1,1,1,5,5,Intervention
1,1,2,5,5,Intervention
1,1,2,5,5,Intervention
1,2,2,5,5,Intervention
2,2,2,5,6,Control
2,1,2,5,6,Control
2,1,2,5,6,Control
2,1,2,5,6,Control
1,2,2,5,6,Intervention
1,2,2,5,6,Intervention
2,1,1,5,7,Control
1,1,2,5,7,Intervention
1,1,2,5,7,Intervention
1,2,1,5,7,Intervention
2,1,2,5,8,Control
1,2,2,5,8,Intervention
1,1,2,5,8,Intervention
2,1,2,5,10,Control
1,1,2,5,10,Intervention
1,2,2,5,11,Intervention
2,3,1,6,0,Control
2,1,2,6,1,Control
2,1,2,6,1,Control
2,1,1,6,2,Control
2,2,2,6,2,Control
2,1,2,6,3,Control
1,2,2,6,3,Intervention
1,2,1,6,4,Intervention
1,1,2,6,4,Intervention
1,2,2,6,4,Intervention
2,1,2,6,5,Control
2,2,2,6,5,Control
2,3,1,6,5,Control
1,3,1,6,5,Intervention
1,1,2,6,5,Intervention
1,1,2,6,5,Intervention
1,3,2,6,5,Intervention
1,1,2,6,5,Intervention
2,1,2,6,6,Control
2,2,2,6,6,Control
2,1,2,6,6,Control
1,1,2,6,6,Intervention
1,1,2,6,6,Intervention
1,1,2,6,6,Intervention
1,3,2,6,6,Intervention
1,2,1,6,6,Intervention
2,1,2,6,7,Control
2,2,2,6,7,Control
2,3,1,6,7,Control
1,1,2,6,7,Intervention
1,1,2,6,7,Intervention
1,1,2,6,7,Intervention
1,2,2,6,7,Intervention
2,1,2,6,8,Control
2,1,1,6,8,Control
1,1,2,6,8,Intervention
1,2,2,6,8,Intervention
2,1,2,6,9,Control
2,1,2,6,9,Control
1,2,2,6,9,Intervention
1,1,2,6,10,Intervention
1,1,1,6,11,Intervention
2,3,2,6,12,Control
1,1,2,6,12,Intervention
1,2,2,7,3,Intervention
1,2,2,7,3,Intervention
2,2,2,7,4,Control
1,1,2,7,4,Intervention
2,1,2,7,5,Control
2,2,1,7,5,Control
2,2,2,7,5,Control
2,1,2,7,5,Control
2,1,2,7,5,Control
1,3,1,7,5,Intervention
1,2,2,7,5,Intervention
1,2,1,7,5,Intervention
1,2,1,7,5,Intervention
2,1,1,7,6,Control
1,2,1,7,6,Intervention
1,1,2,7,6,Intervention
1,1,2,7,6,Intervention
1,1,1,7,6,Intervention
1,2,2,7,6,Intervention
1,2,2,7,6,Intervention
1,2,1,7,6,Intervention
2,1,2,7,7,Control
2,2,2,7,7,Control
1,2,2,7,8,Intervention
1,1,2,7,9,Intervention
1,1,2,7,9,Intervention
1,2,2,7,9,Intervention
1,2,2,7,9,Intervention
1,1,1,7,9,Intervention
2,1,2,7,10,Control
1,1,1,7,11,Intervention
2,1,1,7,12,Control
2,1,2,7,12,Control
2,1,1,8,0,Control
2,1,2,8,2,Control
2,2,1,8,3,Control
2,2,2,8,4,Control
2,1,2,8,4,Control
2,1,1,8,4,Control
1,1,2,8,4,Intervention
1,2,2,8,4,Intervention
2,1,2,8,5,Control
2,3,2,8,5,Control
1,1,1,8,5,Intervention
2,1,2,8,6,Control
2,2,2,8,6,Control
2,1,2,8,6,Control
1,2,2,8,6,Intervention
1,2,2,8,6,Intervention
1,2,2,8,6,Intervention
1,1,2,8,6,Intervention
2,1,2,8,7,Control
1,2,2,8,7,Intervention
1,3,2,8,7,Intervention
1,1,1,8,7,Intervention
1,2,2,8,7,Intervention
1,2,2,8,7,Intervention
2,2,2,8,8,Control
2,1,2,8,8,Control
2,1,1,8,8,Control
2,2,2,8,8,Control
2,2,1,8,8,Control
2,1,2,8,8,Control
1,1,2,8,8,Intervention
1,2,1,8,8,Intervention
1,1,2,8,8,Intervention
2,1,1,8,9,Control
2,1,2,8,9,Control
2,3,2,8,9,Control
2,2,2,8,9,Control
1,1,2,8,9,Intervention
1,1,1,8,9,Intervention
2,3,1,8,10,Control
2,2,2,8,10,Control
2,2,2,8,11,Control
2,1,2,8,11,Control
2,1,2,8,12,Control
2,1,2,8,14,Control
2,2,2,8,17,Control
2,1,1,8,18,Control
2,2,2,9,4,Control
2,1,1,9,4,Control
1,1,1,9,4,Intervention
2,2,1,9,5,Control
2,1,2,9,5,Control
2,1,2,9,5,Control
1,1,2,9,5,Intervention
1,2,2,9,5,Intervention
1,2,2,9,5,Intervention
2,1,2,9,6,Control
2,3,2,9,6,Control
2,1,2,9,6,Control
2,2,2,9,6,Control
1,3,2,9,6,Intervention
1,2,2,9,6,Intervention
1,1,2,9,6,Intervention
2,1,1,9,7,Control
2,1,2,9,7,Control
2,1,1,9,7,Control
1,2,2,9,7,Intervention
1,1,2,9,7,Intervention
1,1,2,9,7,Intervention
1,2,2,9,7,Intervention
1,1,1,9,7,Intervention
1,1,2,9,7,Intervention
2,2,1,9,8,Control
2,2,2,9,8,Control
2,1,2,9,8,Control
2,2,2,9,8,Control
2,1,2,9,8,Control
2,1,2,9,8,Control
2,1,2,9,8,Control
1,1,1,9,8,Intervention
1,1,1,9,8,Intervention
2,1,2,9,9,Control
1,2,2,9,9,Intervention
1,1,2,9,9,Intervention
2,2,2,9,10,Control
2,1,1,9,10,Control
1,1,1,9,10,Intervention
1,1,2,9,10,Intervention
1,1,1,9,10,Intervention
1,3,2,9,10,Intervention
2,1,2,9,11,Control
1,1,1,9,11,Intervention
1,1,2,9,11,Intervention
1,2,2,9,12,Intervention
2,2,1,9,15,Control
2,1,2,10,4,Control
1,2,2,10,4,Intervention
1,3,1,10,4,Intervention
1,2,1,10,5,Intervention
1,2,2,10,5,Intervention
2,2,2,10,6,Control
2,2,2,10,6,Control
1,2,2,10,6,Intervention
1,1,1,10,6,Intervention
2,1,1,10,7,Control
2,2,2,10,7,Control
2,2,2,10,8,Control
2,1,1,10,8,Control
1,3,2,10,8,Intervention
2,1,2,10,9,Control
2,2,2,10,9,Control
2,1,2,10,9,Control
2,1,1,10,9,Control
2,1,2,10,9,Control
1,3,2,10,9,Intervention
1,1,2,10,9,Intervention
2,2,1,10,10,Control
2,1,2,10,10,Control
1,2,2,10,10,Intervention
1,1,1,10,10,Intervention
1,1,1,10,10,Intervention
1,1,2,10,10,Intervention
1,2,2,10,10,Intervention
2,1,2,10,11,Control
2,1,2,10,12,Control
2,1,1,10,12,Control
1,1,1,10,14,Intervention
2,1,2,10,15,Control
1,1,2,10,17,Intervention
2,1,2,11,3,Control
2,1,2,11,3,Control
1,2,2,11,4,Intervention
2,3,2,11,5,Control
1,3,1,11,6,Intervention
2,1,2,11,7,Control
1,1,2,11,7,Intervention
2,1,2,11,8,Control
2,1,2,11,8,Control
1,3,1,11,8,Intervention
1,2,1,11,8,Intervention
1,1,1,11,8,Intervention
2,1,1,11,10,Control
2,1,1,11,10,Control
2,2,1,11,10,Control
2,2,2,11,10,Control
1,3,2,11,10,Intervention
1,2,1,11,10,Intervention
1,1,1,11,10,Intervention
2,1,2,11,11,Control
1,1,2,11,11,Intervention
2,1,2,11,12,Control
2,2,2,11,12,Control
1,1,2,11,12,Intervention
2,1,2,11,13,Control
2,2,2,11,13,Control
1,1,1,11,14,Intervention
2,2,1,11,16,Control
2,2,2,11,17,Control
2,1,2,11,17,Control
1,1,1,11,19,Intervention
2,1,2,12,3,Control
1,2,2,12,3,Intervention
1,3,1,12,3,Intervention
2,1,2,12,4,Control
1,1,2,12,5,Intervention
1,1,2,12,5,Intervention
2,1,2,12,6,Control
2,1,2,12,7,Control
2,3,1,12,7,Control
2,1,2,12,7,Control
2,2,2,12,7,Control
2,2,1,12,7,Control
1,2,2,12,7,Intervention
1,2,2,12,7,Intervention
2,1,2,12,8,Control
2,1,1,12,9,Control
2,1,1,12,9,Control
1,1,2,12,9,Intervention
1,1,2,12,9,Intervention
2,2,2,12,10,Control
2,2,2,12,10,Control
1,1,2,12,10,Intervention
1,2,2,12,10,Intervention
2,1,2,12,11,Control
2,3,2,12,11,Control
2,1,1,12,11,Control
2,2,1,12,12,Control
2,1,2,12,12,Control
1,1,2,12,12,Intervention
1,1,2,12,12,Intervention
1,1,2,12,12,Intervention
1,1,2,12,12,Intervention
1,1,1,12,13,Intervention
1,1,1,12,14,Intervention
2,1,2,12,16,Control
2,1,2,12,17,Control
1,1,2,12,17,Intervention
2,2,2,12,18,Control
2,2,2,12,20,Control
2,2,2,13,6,Control
2,2,2,13,7,Control
2,1,2,13,7,Control
2,1,1,13,7,Control
2,2,1,13,7,Control
2,1,2,13,8,Control
2,1,1,13,8,Control
1,1,2,13,8,Intervention
2,1,2,13,9,Control
2,1,2,13,9,Control
2,3,2,13,9,Control
1,1,2,13,9,Intervention
2,1,2,13,10,Control
2,2,1,13,10,Control
2,2,1,13,10,Control
1,1,1,13,10,Intervention
2,1,1,13,11,Control
2,2,1,13,11,Control
1,1,1,13,11,Intervention
1,1,1,13,11,Intervention
1,1,2,13,11,Intervention
2,1,1,13,12,Control
2,2,2,13,12,Control
1,2,2,13,12,Intervention
1,1,2,13,12,Intervention
1,2,1,13,12,Intervention
2,1,2,13,13,Control
2,1,2,13,13,Control
2,3,1,13,13,Control
2,1,1,13,14,Control
1,1,1,13,14,Intervention
1,1,1,13,15,Intervention
1,1,1,13,16,Intervention
1,2,1,13,17,Intervention
1,2,2,13,17,Intervention
2,1,1,13,18,Control
2,1,2,13,19,Control
1,1,2,13,19,Intervention
2,2,2,14,4,Control
1,1,2,14,4,Intervention
1,2,2,14,4,Intervention
2,2,1,14,7,Control
2,1,1,14,7,Control
1,1,1,14,7,Intervention
2,3,1,14,9,Control
2,1,2,14,9,Control
1,2,1,14,9,Intervention
1,1,2,14,9,Intervention
1,1,2,14,9,Intervention
2,1,2,14,10,Control
2,1,1,14,11,Control
2,1,1,14,11,Control
2,1,2,14,11,Control
1,1,2,14,11,Intervention
2,1,1,14,12,Control
2,1,2,14,12,Control
2,1,1,14,13,Control
1,1,2,14,13,Intervention
2,2,1,14,14,Control
1,1,2,14,15,Intervention
2,1,2,14,16,Control
1,1,1,14,16,Intervention
2,2,2,14,17,Control
2,2,1,14,18,Control
2,1,1,14,19,Control
2,2,2,14,19,Control
2,1,2,14,20,Control
1,1,2,14,21,Intervention
2,1,2,15,4,Control
2,2,2,15,5,Control
2,1,2,15,6,Control
1,2,2,15,6,Intervention
2,1,1,15,7,Control
1,1,2,15,7,Intervention
2,2,1,15,8,Control
1,1,1,15,8,Intervention
1,1,2,15,8,Intervention
1,1,1,15,9,Intervention
1,1,2,15,12,Intervention
2,2,2,15,13,Control
1,1,1,15,13,Intervention
1,1,1,15,13,Intervention
2,1,1,15,14,Control
2,1,1,15,15,Control
2,1,2,15,15,Control
1,1,2,15,15,Intervention
1,1,1,15,15,Intervention
1,1,2,15,15,Intervention
1,1,1,15,16,Intervention
2,1,1,15,17,Control
2,1,1,15,17,Control
1,1,2,15,20,Intervention
1,1,2,15,21,Intervention
1,1,1,15,22,Intervention
1,1,1,16,5,Intervention
2,1,2,16,6,Control
2,1,2,16,8,Control
1,1,2,16,8,Intervention
2,3,1,16,9,Control
2,1,1,16,9,Control
1,2,2,16,9,Intervention
2,1,2,16,10,Control
2,1,2,16,10,Control
1,1,1,16,10,Intervention
1,1,1,16,10,Intervention
2,2,1,16,12,Control
2,1,1,16,12,Control
1,2,2,16,12,Intervention
2,2,2,16,13,Control
2,2,2,16,13,Control
2,2,2,16,14,Control
1,2,1,16,14,Intervention
1,1,2,16,14,Intervention
2,1,2,16,15,Control
1,1,1,16,16,Intervention
2,2,2,16,17,Control
2,1,2,16,19,Control
2,1,2,17,7,Control
1,1,2,17,7,Intervention
1,3,1,17,7,Intervention
2,1,1,17,9,Control
1,2,1,17,9,Intervention
1,1,2,17,9,Intervention
1,2,2,17,13,Intervention
1,1,1,17,13,Intervention
2,1,2,17,16,Control
1,1,1,17,16,Intervention
2,2,1,17,17,Control
1,2,2,17,18,Intervention
2,1,2,17,25,Control
1,3,1,17,26,Intervention
2,1,2,18,7,Control
2,1,2,18,7,Control
1,2,2,18,7,Intervention
2,1,2,18,10,Control
1,1,1,18,10,Intervention
1,2,1,18,11,Intervention
1,3,2,18,11,Intervention
2,1,1,18,12,Control
1,2,2,18,12,Intervention
2,1,2,18,14,Control
2,2,2,18,15,Control
1,2,1,18,15,Intervention
1,2,2,18,16,Intervention
2,1,1,18,17,Control
2,2,2,18,20,Control
2,1,2,19,5,Control
1,2,2,19,6,Intervention
2,2,2,19,11,Control
1,1,2,19,12,Intervention
2,1,2,19,13,Control
2,2,2,19,13,Control
2,1,1,19,15,Control
2,1,2,19,16,Control
1,1,1,19,16,Intervention
2,1,2,19,17,Control
1,1,2,19,18,Intervention
1,1,1,19,18,Intervention
2,1,1,19,19,Control
2,1,1,19,20,Control
2,1,1,19,21,Control
1,1,1,19,21,Intervention
2,1,1,19,27,Control
1,1,1,20,9,Intervention
1,2,1,20,12,Intervention
1,1,1,20,14,Intervention
1,1,2,20,16,Intervention
2,1,2,20,18,Control
2,1,1,20,18,Control
2,1,2,20,19,Control
1,1,1,20,20,Intervention
2,1,1,20,21,Control
1,1,2,20,24,Intervention
1,2,1,20,32,Intervention
2,2,2,21,8,Control
1,1,1,21,10,Intervention
2,1,1,21,13,Control
1,1,2,21,17,Intervention
2,1,2,21,19,Control
1,2,2,21,21,Intervention
2,1,2,21,26,Control
2,1,2,21,29,Control
1,3,2,22,7,Intervention
2,1,2,22,14,Control
1,2,2,22,15,Intervention
1,1,1,22,17,Intervention
1,1,1,22,27,Intervention
1,1,2,23,7,Intervention
2,1,1,23,13,Control
1,1,2,23,15,Intervention
1,1,2,23,16,Intervention
1,1,2,23,17,Intervention
1,2,2,23,25,Intervention
1,1,1,24,10,Intervention
1,1,2,24,10,Intervention
1,2,2,24,12,Intervention
1,1,2,24,13,Intervention
2,1,1,24,17,Control
2,1,1,24,23,Control
2,1,1,24,30,Control
2,1,1,25,7,Control
2,2,1,25,13,Control
2,1,2,25,14,Control
2,2,1,25,15,Control
1,2,1,25,16,Intervention
2,1,1,25,17,Control
2,3,2,25,17,Control
2,2,2,25,18,Control
2,2,1,25,21,Control
2,1,1,25,29,Control
2,1,2,26,20,Control
1,1,2,26,25,Intervention
2,1,2,27,18,Control
1,1,2,27,23,Intervention
1,2,1,27,25,Intervention
2,1,1,27,26,Control
1,2,1,27,29,Intervention
1,1,2,28,15,Intervention
2,1,1,28,20,Control
1,2,2,28,20,Intervention
2,1,1,28,24,Control
2,2,1,28,28,Control
1,1,2,29,22,Intervention
1,1,2,29,24,Intervention
2,1,2,30,12,Control
1,2,2,31,24,Intervention
1,1,2,32,14,Intervention
